{
  "trigger": {
    "schedule": {
      "interval": "10m"
    }
  },
  "input": {
    "search": {
      "request": {
        "search_type": "query_then_fetch",
        "indices": [
          "xyz-*"
        ],
        "types": [],
        "body": {
          "query": {
            "bool": {
              "must": [
                {
                  "match": {
                    "level": "ERROR"
                  }
                },
                {
                  "range": {
                    "@timestamp": {
                      "gte": "now-10m",
                      "lte": "now"
                    }
                  }
                }
              ]
            }
          }
        }
      }
    }
  },
  "condition": {
    "always": {}
  },
  "actions": {
    "email_administrator": {
      "throttle_period_in_millis": 600000,
      "email": {
        "profile": "standard",
        "from": "mailer@mailer",
        "to": [
          "mail@mail"
        ],
        "subject": "{{ctx.payload.hits.hits.0._source.environment}} Alert from ELK {{ctx.payload.hits.hits.0._source.environment}}, app: {{ctx.payload.hits.hits.0._source.app}}, hostname: {{ctx.payload.hits.hits.0._source.hostname}} file: {{ctx.payload.hits.hits.0._source.file}}",
        "body": {
          "text": "{{ctx.payload.hits.total}} ERROR in the last 10 minutes \n {{ctx.payload.hits.hits.0._source.level}} Message is : {{ctx.payload.hits.hits.0._source.msg}}. \n More information can be viewed in Kibana "
        }
      }
    }
  }
}