{
	"dashboard": {
		"annotations": {
			"list": [{
				"builtIn": 1,
				"datasource": "-- Grafana --",
				"enable": true,
				"hide": true,
				"iconColor": "rgba(0, 211, 255, 1)",
				"name": "Annotations & Alerts",
				"type": "dashboard"
			}]
		},
		"editable": true,
		"gnetId": null,
		"graphTooltip": 0,
		"id": null,
		"links": [],
		"panels": [{
			"aliasColors": {
				"elastic": "#bf1b00",
				"heap": "#fce2de",
				"tomcat": "#7eb26d"
			},
			"bars": false,
			"dashLength": 10,
			"dashes": false,
			"datasource": "elastic",
			"fill": 10,
			"gridPos": {
				"h": 12,
				"w": 21,
				"x": 2,
				"y": 0
			},
			"hideTimeOverride": true,
			"id": 2,
			"legend": {
				"avg": false,
				"current": false,
				"max": false,
				"min": false,
				"show": true,
				"total": false,
				"values": false
			},
			"lines": true,
			"linewidth": 0,
			"links": [],
			"nullPointMode": "null",
			"percentage": false,
			"pointradius": 5,
			"points": false,
			"renderer": "flot",
			"seriesOverrides": [],
			"spaceLength": 10,
			"stack": true,
			"steppedLine": false,
			"targets": [{
				"alias": "heap",
				"bucketAggs": [{
					"field": "@timestamp",
					"id": "2",
					"settings": {
						"interval": "auto",
						"min_doc_count": 0,
						"trimEdges": 0
					},
					"type": "date_histogram"
				}],
				"metrics": [{
					"field": "select field",
					"id": "1",
					"meta": {},
					"settings": {},
					"type": "count"
				}],
				"query": "elasticsearch and heap",
				"refId": "A",
				"timeField": "@timestamp"
			}, {
				"alias": "tomcat",
				"bucketAggs": [{
					"field": "@timestamp",
					"id": "2",
					"settings": {
						"interval": "auto",
						"min_doc_count": 0,
						"trimEdges": 0
					},
					"type": "date_histogram"
				}],
				"metrics": [{
					"field": "select field",
					"id": "1",
					"type": "count"
				}],
				"query": "tomcat",
				"refId": "B",
				"timeField": "@timestamp"
			}, {
				"alias": "elastic",
				"bucketAggs": [{
					"field": "@timestamp",
					"id": "2",
					"settings": {
						"interval": "auto",
						"min_doc_count": 0,
						"trimEdges": 0
					},
					"type": "date_histogram"
				}],
				"metrics": [{
					"field": "select field",
					"id": "1",
					"type": "count"
				}],
				"query": "elasticsearch",
				"refId": "C",
				"timeField": "@timestamp"
			}],
			"thresholds": [],
			"timeFrom": null,
			"timeShift": null,
			"title": "dev stack",
			"tooltip": {
				"shared": true,
				"sort": 0,
				"value_type": "individual"
			},
			"transparent": true,
			"type": "graph",
			"xaxis": {
				"buckets": null,
				"mode": "time",
				"name": null,
				"show": true,
				"values": []
			},
			"yaxes": [{
				"format": "short",
				"label": null,
				"logBase": 1,
				"max": null,
				"min": null,
				"show": true
			}, {
				"format": "short",
				"label": null,
				"logBase": 1,
				"max": null,
				"min": null,
				"show": true
			}],
			"yaxis": {
				"align": false,
				"alignLevel": null
			}
		}, {
			"content": "<style type=\"text/css\">\r\np.markdown-html.panel-text-content {\r\noverflow: hidden;\r\n}\r\np.markdown-html.panel-text-content iframe {\r\nheight:225px;\r\n}\r\n</style>\r\n<script type=\"text/javascript\">\r\nvar weatherProperties = 'lat=47.4888319&lon=19.081378&color=#FFFFFF&text-color=#FFFFFF';\r\n \r\n// initial load\r\ndocument.getElementById('embedweather').src = 'http://forecast.io/embed/?ts=' + (Date.now()) + '#' + weatherProperties;\r\n \r\n// refresh\r\nvar weatherRefresh = setInterval(function() { document.getElementById('embedweather').src = 'http://forecast.io/embed/?ts=' + (Date.now()) + '#' + weatherProperties; }, 1800000);\r\n \r\n</script>\r\n<iframe id=\"embedweather\" height=\"66%\" src=\"#\" style=\"margin: 0; padding: 0; border: none; width:100%; position:relative; top:-50px; overflow:hidden; margin-bottom: -70px;\"></iframe>",
			"gridPos": {
				"h": 9,
				"w": 12,
				"x": 0,
				"y": 12
			},
			"id": 4,
			"links": [],
			"mode": "html",
			"title": "weather",
			"transparent": true,
			"type": "text"
		}, {
			"content": "<iframe width=\"100%\" height=\"166\" scrolling=\"no\" frameborder=\"yes\" allow=\"autoplay\" src=\"https://w.soundcloud.com/player/?url=https%3A//api.soundcloud.com/tracks/85713313&color=%23e5ebe7&auto_play=true&hide_related=false&show_comments=true&show_user=true&show_reposts=false&show_teaser=true\"></iframe>",
			"gridPos": {
				"h": 9,
				"w": 12,
				"x": 12,
				"y": 12
			},
			"id": 6,
			"links": [],
			"mode": "html",
			"title": "Panel Title",
			"transparent": true,
			"type": "text"
		}],
		"refresh": "5s",
		"schemaVersion": 16,
		"style": "dark",
		"tags": [],
		"templating": {
			"list": []
		},
		"time": {
			"from": "now-30m",
			"to": "now"
		},
		"timepicker": {
			"refresh_intervals": ["5s", "10s", "30s", "1m", "5m", "15m", "30m", "1h", "2h", "1d"],
			"time_options": ["5m", "15m", "1h", "6h", "12h", "24h", "2d", "7d", "30d"]
		},
		"timezone": "",
		"title": "dev art",
		"uid": "OyCVwmLiz",
		"version": 2
	},
	"overwrite": true,
	"inputs": [],
	"folderId": 0
}
